Word,Type,Meaning,Example Sentences
Master,Noun,ครู,My master teach me.
,,,He is master at the university.
,,เจ้านาย,I'm your master.
,,ผู้เชี่ยวชาญ,He is networking master.
,Verb,ควบคุม,She master me.
,,,He master the army.
,,ปกครอง,Prayuth master the country.
Mastery,Noun,การบังคับบัญชา,The mastery from their general is bad.
,,ความเชี่ยวชาญ,I have cooking mastery.
Build,Verb,สร้าง,"They build the house."
,,,Do you want to build a snowman?
Love,Verb,รัก,"I love you."
,,,He love you so much.
Handsome,Adjective,หล่อ,I am very handsome.
Beautiful,Adjective,สวย,She is beautiful.
,,,I've never seen who beautiful as you.
Oh my god!,Interjection,พระเจ้าช่วย,Oh my god! What are you doing
Weed,Noun,ยาสูบ,Nuk smoke weed everyday.
Cost,Noun,ราคา,Cost of television is 11700.
,Verb,ต้องใช้,It cost 35 mana.
Sexy,Adjective,น่าเย้ายวน,I'm so sexy.
